20120100|                               429E88926|             11011101001|01/01/2012|                                                                        ASIENTO DE APERTURA ENE 2012|11769.13|0.00|1|
20120100|                               14E167471|             11021101001|17/01/2012|                                                                      REEMBOLSO CAJA CHICA OF.MATRIZ|1362.60|0.00|1|
20120100|                               28E167631|             11021101002|20/01/2012|                                                                      REPOSICION CAJA CHICA OBRA SDL|1005.51|0.00|1|
20120100|                               24E167591|             11021101003|19/01/2012|                                                                  REPOSICION CAJA CHICA VENTAS PIURA|813.39|0.00|1|
20120100|                                2E167341|             11021101004|03/01/2012|                                                      ENTREGA A RENDIR CUENTA CAJA CHICA-HENRY RIVAS|1500.00|0.00|1|
20120100|                               27E167621|             11021101004|19/01/2012|                                                                      APERTURA CAJA CHICA OBRA PIURA|1500.00|0.00|1|
20120100|                               23E167581|             11021101006|19/01/2012|                                                               REPOSICION CAJA CHICA VENTAS CHICLAYO|862.48|0.00|1|
20120100|                               29E167641|             11021101006|20/01/2012|                                                               REPOSICION CAJA CHICA VENTAS CHICLAYO|282.00|0.00|1|
20120100|                               25E167601|             11021101008|19/01/2012|                                                         REPOSICION CAJA CHICA SUBGERENCIA COMERCIAL|550.40|0.00|1|
20120100|                               26E167611|             11021101008|19/01/2012|                                                           APERTURA FONDO FIJO SUBGERENCIA COMERCIAL|1000.00|0.00|1|
